<svg width="194" height="58" viewBox="0 0 194 58" fill="none" xmlns="http://www.w3.org/2000/svg">
<path d="M164.313 39.9999C180.186 39.9999 193.053 38.8393 193.053 37.4077C193.053 35.976 180.186 34.8154 164.313 34.8154C148.441 34.8154 135.574 35.976 135.574 37.4077C135.574 38.8393 148.441 39.9999 164.313 39.9999Z" fill="url(#paint0_radial_2_3418)"/>
<path d="M172.762 28.1078C175.522 26.7474 177.902 30.5736 175.637 32.7246C174.356 33.9414 172.885 34.9805 171.245 35.7881C162.312 40.1885 151.696 36.1052 147.531 26.6703C143.365 17.2332 147.231 6.01797 156.161 1.61758C157.804 0.80991 159.503 0.287175 161.209 0.0322352C164.224 -0.417659 165.467 3.96774 162.707 5.32599L158.676 7.31195C152.722 10.2448 150.145 17.7238 152.923 24.0137C155.699 30.3037 162.778 33.0266 168.732 30.0916L172.762 28.1078Z" fill="#333333"/>
<path d="M181.636 17.7026L181.604 17.7197L181.528 17.7561L162.166 27.2961C161.01 27.8659 159.637 27.3368 159.098 26.1156C158.559 24.8945 159.059 23.4441 160.215 22.8742L173.218 16.4686C174.409 15.8816 174.924 14.3862 174.368 13.1287C173.812 11.8711 172.397 11.3269 171.207 11.9118L158.204 18.3174C157.048 18.8873 155.675 18.3581 155.136 17.137L155.016 16.8649C154.476 15.6438 154.977 14.1934 156.133 13.6235L175.165 4.2486L175.571 4.04937L175.603 4.03223L176.084 5.12054L181.51 17.4155V17.4177L181.636 17.7026Z" fill="url(#paint1_linear_2_3418)"/>
<path d="M186.563 5.79937L175.606 4.02979L181.639 17.698L187.399 7.69321C187.841 6.92839 187.403 5.93434 186.563 5.79937Z" fill="url(#paint2_linear_2_3418)"/>
<path d="M15.5478 33.4531C16.0791 33.4531 16.5354 33.6544 16.9187 34.0593C17.2999 34.4643 17.4926 34.9463 17.4926 35.5076C17.4926 36.0689 17.3019 36.5509 16.9187 36.9558C16.5354 37.3607 16.0791 37.5621 15.5478 37.5621H7.7729C2.59164 37.56 0 34.822 0 29.3483V25.2414C0 19.7656 2.59164 17.0298 7.7729 17.0298H15.5458C16.0771 17.0298 16.5334 17.2312 16.9166 17.6361C17.2979 18.041 17.4905 18.523 17.4905 19.0843C17.4905 19.6456 17.2999 20.1276 16.9166 20.5325C16.5334 20.9374 16.0771 21.1388 15.5458 21.1388H7.7729C5.18125 21.1388 3.88543 22.5078 3.88543 25.2457V29.3526C3.88543 32.0905 5.18125 33.4595 7.7729 33.4595H15.5478V33.4531Z" fill="#333333"/>
<path d="M19.4355 25.2414C19.4355 19.7656 22.0272 17.0298 27.2105 17.0298H29.1532C34.3365 17.0298 36.9281 19.7677 36.9281 25.2414V29.3483C36.9281 34.8242 34.3365 37.56 29.1532 37.56H27.2105C22.0272 37.56 19.4355 34.822 19.4355 29.3483V25.2414ZM27.2084 21.1345C24.6168 21.1345 23.321 22.5035 23.321 25.2414V29.3483C23.321 32.0862 24.6168 33.4552 27.2084 33.4552H29.1512C31.7428 33.4552 33.0386 32.0862 33.0386 29.3483V25.2414C33.0386 22.5035 31.7428 21.1345 29.1512 21.1345H27.2084Z" fill="#333333"/>
<path d="M42.7557 35.5076C42.7557 36.0689 42.5651 36.5509 42.1818 36.9558C41.7985 37.3607 41.3423 37.5621 40.811 37.5621C40.2796 37.5621 39.8234 37.3607 39.4401 36.9558C39.0568 36.553 38.8662 36.0689 38.8662 35.5076V25.2414C38.8662 19.7656 41.4579 17.0298 46.6391 17.0298H48.5818C53.7651 17.0298 56.3547 19.7677 56.3547 25.2414V35.5076C56.3547 36.0689 56.1641 36.5509 55.7808 36.9558C55.3976 37.3607 54.9413 37.5621 54.41 37.5621C53.8787 37.5621 53.4224 37.3607 53.0391 36.9558C52.6558 36.553 52.4652 36.0689 52.4652 35.5076V25.2414C52.4652 22.5035 51.1694 21.1345 48.5778 21.1345H46.6351C44.0434 21.1345 42.7476 22.5035 42.7476 25.2414V35.5076H42.7557Z" fill="#333333"/>
<path d="M58.3037 10.8685C58.3037 10.3072 58.4943 9.82516 58.8776 9.42025C59.2588 9.01749 59.7171 8.81396 60.2485 8.81396C60.7798 8.81396 61.236 9.01535 61.6193 9.42025C62.0005 9.82516 62.1932 10.3072 62.1932 10.8685V17.0278H68.0234C68.5547 17.0278 69.011 17.2291 69.3942 17.634C69.7755 18.0389 69.9681 18.521 69.9681 19.0823C69.9681 19.6436 69.7775 20.1256 69.3942 20.5305C69.011 20.9354 68.5547 21.1368 68.0234 21.1368H62.1932V29.3484C62.1932 32.0864 63.489 33.4553 66.0807 33.4553H68.0234C68.5547 33.4553 69.011 33.6567 69.3942 34.0616C69.7755 34.4665 69.9681 34.9485 69.9681 35.5098C69.9681 36.0711 69.7775 36.5532 69.3942 36.9581C69.011 37.363 68.5547 37.5644 68.0234 37.5644H66.0807C60.8974 37.5644 58.3078 34.8264 58.3078 29.3527V10.8685H58.3037Z" fill="#333333"/>
<path d="M87.457 33.4529C87.9883 33.4529 88.4446 33.6543 88.8278 34.0592C89.2091 34.4641 89.4017 34.9461 89.4017 35.5074C89.4017 36.0687 89.2111 36.5507 88.8278 36.9556C88.4446 37.3605 87.9883 37.5619 87.457 37.5619H79.6841C74.5008 37.5619 71.9092 34.824 71.9092 29.3503V25.2434C71.9092 19.7675 74.5008 17.0317 79.6841 17.0317H81.6268C86.8101 17.0317 89.3997 19.7697 89.3997 25.2434V27.2958C89.3997 27.8699 89.2091 28.3562 88.8258 28.7526C88.4425 29.1489 87.9863 29.3481 87.455 29.3481H75.7946C75.7946 32.0861 77.0904 33.455 79.6821 33.455H87.457V33.4529ZM75.7966 25.2412H85.5143C85.5143 22.5033 84.2185 21.1343 81.6268 21.1343H79.6841C77.0904 21.1343 75.7966 22.5033 75.7966 25.2412Z" fill="#333333"/>
<path d="M95.2293 35.5076C95.2293 36.0689 95.0387 36.5509 94.6554 36.9558C94.2722 37.3607 93.8159 37.5621 93.2846 37.5621C92.7533 37.5621 92.297 37.3607 91.9137 36.9558C91.5305 36.553 91.3398 36.0689 91.3398 35.5076V25.2414C91.3398 19.7656 93.9315 17.0298 99.1148 17.0298H101.057C106.241 17.0298 108.83 19.7677 108.83 25.2414V35.5076C108.83 36.0689 108.64 36.5509 108.256 36.9558C107.873 37.3607 107.417 37.5621 106.886 37.5621C106.354 37.5621 105.898 37.3607 105.515 36.9558C105.132 36.553 104.941 36.0689 104.941 35.5076V25.2414C104.941 22.5035 103.645 21.1345 101.053 21.1345H99.1107C96.5191 21.1345 95.2232 22.5035 95.2232 25.2414V35.5076H95.2293Z" fill="#333333"/>
<path d="M110.777 10.8685C110.777 10.3072 110.968 9.82516 111.351 9.42025C111.732 9.01749 112.191 8.81396 112.722 8.81396C113.253 8.81396 113.71 9.01535 114.093 9.42025C114.474 9.82516 114.667 10.3072 114.667 10.8685V17.0278H120.497C121.028 17.0278 121.485 17.2291 121.868 17.634C122.249 18.0389 122.442 18.521 122.442 19.0823C122.442 19.6436 122.251 20.1256 121.868 20.5305C121.485 20.9354 121.028 21.1368 120.497 21.1368H114.667V29.3484C114.667 32.0864 115.963 33.4553 118.554 33.4553H120.497C121.028 33.4553 121.485 33.6567 121.868 34.0616C122.249 34.4665 122.442 34.9485 122.442 35.5098C122.442 36.0711 122.251 36.5532 121.868 36.9581C121.485 37.363 121.028 37.5644 120.497 37.5644H118.554C113.371 37.5644 110.781 34.8264 110.781 29.3527V10.8685H110.777Z" fill="#333333"/>
<path d="M134.019 23.2104C135.076 23.2104 135.984 23.6132 136.745 24.4145C137.505 25.2178 137.885 26.1776 137.885 27.2938C137.885 28.4099 137.503 29.3697 136.745 30.1731C135.984 30.9765 135.076 31.3771 134.019 31.3771C132.963 31.3771 132.054 30.9765 131.294 30.1731C130.534 29.3697 130.154 28.4099 130.154 27.2938C130.154 26.1776 130.534 25.2178 131.294 24.4145C132.052 23.6111 132.963 23.2104 134.019 23.2104Z" fill="#FF8C14"/>
<path d="M0.936 55V46.54H2.1L7.008 52.888H6.696V46.54H8.136V55H6.972L2.076 48.652H2.376V55H0.936ZM12.6106 55.12C11.9866 55.12 11.4466 54.992 10.9906 54.736C10.5346 54.48 10.1786 54.116 9.92259 53.644C9.67459 53.172 9.55059 52.612 9.55059 51.964C9.55059 51.316 9.67459 50.76 9.92259 50.296C10.1786 49.824 10.5346 49.46 10.9906 49.204C11.4466 48.948 11.9866 48.82 12.6106 48.82C13.2346 48.82 13.7746 48.948 14.2306 49.204C14.6946 49.46 15.0506 49.824 15.2986 50.296C15.5546 50.76 15.6826 51.316 15.6826 51.964C15.6826 52.612 15.5546 53.172 15.2986 53.644C15.0506 54.116 14.6946 54.48 14.2306 54.736C13.7746 54.992 13.2346 55.12 12.6106 55.12ZM12.6106 53.968C13.0826 53.968 13.4586 53.804 13.7386 53.476C14.0186 53.14 14.1586 52.636 14.1586 51.964C14.1586 51.292 14.0186 50.792 13.7386 50.464C13.4586 50.136 13.0826 49.972 12.6106 49.972C12.1386 49.972 11.7626 50.136 11.4826 50.464C11.2026 50.792 11.0626 51.292 11.0626 51.964C11.0626 52.636 11.2026 53.14 11.4826 53.476C11.7626 53.804 12.1386 53.968 12.6106 53.968ZM14.1346 49.708L13.2706 49.168V48.94C13.5586 48.932 13.7866 48.892 13.9546 48.82C14.1306 48.74 14.2586 48.608 14.3386 48.424C14.4186 48.24 14.4586 47.988 14.4586 47.668V47.416H15.7546V47.86C15.7546 48.204 15.6866 48.508 15.5506 48.772C15.4226 49.036 15.2386 49.252 14.9986 49.42C14.7586 49.58 14.4706 49.676 14.1346 49.708ZM16.9762 55V48.94H18.4762V55H16.9762ZM16.8922 47.8V46.336H18.5602V47.8H16.8922ZM23.398 55V50.452C23.398 50.204 23.39 49.952 23.374 49.696C23.358 49.44 23.334 49.188 23.302 48.94H24.754L24.874 50.14H24.73C24.898 49.724 25.154 49.4 25.498 49.168C25.85 48.936 26.266 48.82 26.746 48.82C27.226 48.82 27.622 48.936 27.934 49.168C28.254 49.392 28.478 49.744 28.606 50.224H28.414C28.582 49.792 28.858 49.452 29.242 49.204C29.626 48.948 30.066 48.82 30.562 48.82C31.242 48.82 31.75 49.02 32.086 49.42C32.422 49.82 32.59 50.444 32.59 51.292V55H31.09V51.352C31.09 50.872 31.01 50.528 30.85 50.32C30.69 50.104 30.434 49.996 30.082 49.996C29.666 49.996 29.338 50.144 29.098 50.44C28.858 50.728 28.738 51.12 28.738 51.616V55H27.238V51.352C27.238 50.872 27.158 50.528 26.998 50.32C26.838 50.104 26.582 49.996 26.23 49.996C25.814 49.996 25.486 50.144 25.246 50.44C25.014 50.728 24.898 51.12 24.898 51.616V55H23.398ZM36.375 55.12C35.631 55.12 35.075 54.916 34.707 54.508C34.339 54.1 34.155 53.476 34.155 52.636V48.94H35.655V52.624C35.655 53.072 35.747 53.404 35.931 53.62C36.115 53.828 36.395 53.932 36.771 53.932C37.195 53.932 37.539 53.788 37.803 53.5C38.075 53.212 38.211 52.832 38.211 52.36V48.94H39.711V55H38.247V53.764H38.415C38.239 54.196 37.971 54.532 37.611 54.772C37.259 55.004 36.847 55.12 36.375 55.12ZM43.6794 55.12C43.1514 55.12 42.6874 54.996 42.2874 54.748C41.8874 54.492 41.5754 54.128 41.3514 53.656C41.1274 53.184 41.0154 52.62 41.0154 51.964C41.0154 51.308 41.1274 50.748 41.3514 50.284C41.5754 49.812 41.8874 49.452 42.2874 49.204C42.6874 48.948 43.1514 48.82 43.6794 48.82C44.1914 48.82 44.6394 48.948 45.0234 49.204C45.4154 49.452 45.6754 49.788 45.8034 50.212H45.6714L45.8034 48.94H47.2434C47.2194 49.188 47.1954 49.44 47.1714 49.696C47.1554 49.952 47.1474 50.204 47.1474 50.452V55H45.6594L45.6474 53.752H45.7914C45.6634 54.168 45.4034 54.5 45.0114 54.748C44.6194 54.996 44.1754 55.12 43.6794 55.12ZM44.0994 53.968C44.5714 53.968 44.9514 53.804 45.2394 53.476C45.5274 53.14 45.6714 52.636 45.6714 51.964C45.6714 51.292 45.5274 50.792 45.2394 50.464C44.9514 50.136 44.5714 49.972 44.0994 49.972C43.6274 49.972 43.2474 50.136 42.9594 50.464C42.6714 50.792 42.5274 51.292 42.5274 51.964C42.5274 52.636 42.6674 53.14 42.9474 53.476C43.2354 53.804 43.6194 53.968 44.0994 53.968ZM55.5418 55.12C55.0298 55.12 54.5818 54.996 54.1978 54.748C53.8138 54.492 53.5578 54.148 53.4298 53.716H53.5618V55H52.0738V46.168H53.5738V50.176H53.4298C53.5658 49.76 53.8258 49.432 54.2098 49.192C54.5938 48.944 55.0378 48.82 55.5418 48.82C56.0778 48.82 56.5458 48.948 56.9458 49.204C57.3458 49.46 57.6578 49.824 57.8818 50.296C58.1058 50.76 58.2178 51.32 58.2178 51.976C58.2178 52.632 58.1058 53.196 57.8818 53.668C57.6578 54.132 57.3418 54.492 56.9338 54.748C56.5338 54.996 56.0698 55.12 55.5418 55.12ZM55.1218 53.968C55.5938 53.968 55.9738 53.804 56.2618 53.476C56.5578 53.148 56.7058 52.648 56.7058 51.976C56.7058 51.304 56.5578 50.804 56.2618 50.476C55.9738 50.14 55.5938 49.972 55.1218 49.972C54.6498 49.972 54.2698 50.136 53.9818 50.464C53.6938 50.792 53.5498 51.292 53.5498 51.964C53.5498 52.636 53.6938 53.14 53.9818 53.476C54.2698 53.804 54.6498 53.968 55.1218 53.968ZM61.8552 55.12C61.3272 55.12 60.8632 54.996 60.4632 54.748C60.0632 54.492 59.7512 54.128 59.5272 53.656C59.3032 53.184 59.1912 52.62 59.1912 51.964C59.1912 51.308 59.3032 50.748 59.5272 50.284C59.7512 49.812 60.0632 49.452 60.4632 49.204C60.8632 48.948 61.3272 48.82 61.8552 48.82C62.3672 48.82 62.8152 48.948 63.1992 49.204C63.5912 49.452 63.8512 49.788 63.9792 50.212H63.8472L63.9792 48.94H65.4192C65.3952 49.188 65.3712 49.44 65.3472 49.696C65.3312 49.952 65.3232 50.204 65.3232 50.452V55H63.8352L63.8232 53.752H63.9672C63.8392 54.168 63.5792 54.5 63.1872 54.748C62.7952 54.996 62.3512 55.12 61.8552 55.12ZM62.2752 53.968C62.7472 53.968 63.1272 53.804 63.4152 53.476C63.7032 53.14 63.8472 52.636 63.8472 51.964C63.8472 51.292 63.7032 50.792 63.4152 50.464C63.1272 50.136 62.7472 49.972 62.2752 49.972C61.8032 49.972 61.4232 50.136 61.1352 50.464C60.8472 50.792 60.7032 51.292 60.7032 51.964C60.7032 52.636 60.8432 53.14 61.1232 53.476C61.4112 53.804 61.7952 53.968 62.2752 53.968ZM61.8552 48.352L63.0912 45.916H64.5672L62.8632 48.352H61.8552ZM66.9566 55V50.452C66.9566 50.204 66.9486 49.952 66.9326 49.696C66.9166 49.44 66.8926 49.188 66.8606 48.94H68.3126L68.4326 50.14H68.2886C68.4806 49.716 68.7646 49.392 69.1406 49.168C69.5166 48.936 69.9526 48.82 70.4486 48.82C71.1606 48.82 71.6966 49.02 72.0566 49.42C72.4166 49.82 72.5966 50.444 72.5966 51.292V55H71.0966V51.364C71.0966 50.876 71.0006 50.528 70.8086 50.32C70.6246 50.104 70.3446 49.996 69.9686 49.996C69.5046 49.996 69.1366 50.14 68.8646 50.428C68.5926 50.716 68.4566 51.1 68.4566 51.58V55H66.9566ZM77.4801 55V50.452C77.4801 50.204 77.4721 49.952 77.4561 49.696C77.4401 49.44 77.4161 49.188 77.3841 48.94H78.8361L78.9561 50.14H78.8121C79.0041 49.716 79.2881 49.392 79.6641 49.168C80.0401 48.936 80.4761 48.82 80.9721 48.82C81.6841 48.82 82.2201 49.02 82.5801 49.42C82.9401 49.82 83.1201 50.444 83.1201 51.292V55H81.6201V51.364C81.6201 50.876 81.5241 50.528 81.3321 50.32C81.1481 50.104 80.8681 49.996 80.4921 49.996C80.0281 49.996 79.6601 50.14 79.3881 50.428C79.1161 50.716 78.9801 51.1 78.9801 51.58V55H77.4801ZM87.4465 55.12C86.8225 55.12 86.2825 54.992 85.8265 54.736C85.3705 54.48 85.0145 54.116 84.7585 53.644C84.5105 53.172 84.3865 52.612 84.3865 51.964C84.3865 51.316 84.5105 50.76 84.7585 50.296C85.0145 49.824 85.3705 49.46 85.8265 49.204C86.2825 48.948 86.8225 48.82 87.4465 48.82C88.0705 48.82 88.6105 48.948 89.0665 49.204C89.5305 49.46 89.8865 49.824 90.1345 50.296C90.3905 50.76 90.5185 51.316 90.5185 51.964C90.5185 52.612 90.3905 53.172 90.1345 53.644C89.8865 54.116 89.5305 54.48 89.0665 54.736C88.6105 54.992 88.0705 55.12 87.4465 55.12ZM87.4465 53.968C87.9185 53.968 88.2945 53.804 88.5745 53.476C88.8545 53.14 88.9945 52.636 88.9945 51.964C88.9945 51.292 88.8545 50.792 88.5745 50.464C88.2945 50.136 87.9185 49.972 87.4465 49.972C86.9745 49.972 86.5985 50.136 86.3185 50.464C86.0385 50.792 85.8985 51.292 85.8985 51.964C85.8985 52.636 86.0385 53.14 86.3185 53.476C86.5985 53.804 86.9745 53.968 87.4465 53.968ZM86.7265 57.448V56.056H88.1905V57.448H86.7265ZM85.4785 48.352L86.7985 45.916H88.1185L89.4385 48.352H88.4905L87.4585 46.768L86.4265 48.352H85.4785ZM91.8121 55V48.94H93.3121V55H91.8121ZM91.7281 47.8V46.336H93.3961V47.8H91.7281ZM100.586 55.12C100.058 55.12 99.59 54.996 99.182 54.748C98.782 54.492 98.47 54.128 98.246 53.656C98.022 53.184 97.91 52.62 97.91 51.964C97.91 51.308 98.022 50.748 98.246 50.284C98.47 49.812 98.782 49.452 99.182 49.204C99.59 48.948 100.058 48.82 100.586 48.82C101.09 48.82 101.534 48.944 101.918 49.192C102.31 49.432 102.57 49.76 102.698 50.176H102.542V46.168H104.042V55H102.566V53.716H102.71C102.582 54.148 102.322 54.492 101.93 54.748C101.546 54.996 101.098 55.12 100.586 55.12ZM101.006 53.968C101.478 53.968 101.858 53.804 102.146 53.476C102.434 53.14 102.578 52.636 102.578 51.964C102.578 51.292 102.434 50.792 102.146 50.464C101.858 50.136 101.478 49.972 101.006 49.972C100.534 49.972 100.15 50.136 99.854 50.464C99.566 50.792 99.422 51.292 99.422 51.964C99.422 52.636 99.566 53.14 99.854 53.476C100.15 53.804 100.534 53.968 101.006 53.968ZM107.859 55.12C107.115 55.12 106.559 54.916 106.191 54.508C105.823 54.1 105.639 53.476 105.639 52.636V48.94H107.139V52.624C107.139 53.072 107.231 53.404 107.415 53.62C107.599 53.828 107.879 53.932 108.255 53.932C108.679 53.932 109.023 53.788 109.287 53.5C109.559 53.212 109.695 52.832 109.695 52.36V48.94H111.195V55H109.731V53.764H109.899C109.723 54.196 109.455 54.532 109.095 54.772C108.743 55.004 108.331 55.12 107.859 55.12ZM112.824 55V50.452C112.824 50.204 112.816 49.952 112.8 49.696C112.784 49.44 112.76 49.188 112.728 48.94H114.18L114.3 50.14H114.156C114.348 49.716 114.632 49.392 115.008 49.168C115.384 48.936 115.82 48.82 116.316 48.82C117.028 48.82 117.564 49.02 117.924 49.42C118.284 49.82 118.464 50.444 118.464 51.292V55H116.964V51.364C116.964 50.876 116.868 50.528 116.676 50.32C116.492 50.104 116.212 49.996 115.836 49.996C115.372 49.996 115.004 50.14 114.732 50.428C114.46 50.716 114.324 51.1 114.324 51.58V55H112.824ZM122.862 57.688C122.302 57.688 121.794 57.628 121.338 57.508C120.89 57.388 120.49 57.204 120.138 56.956L120.462 55.876C120.694 56.028 120.934 56.152 121.182 56.248C121.43 56.344 121.686 56.416 121.95 56.464C122.214 56.512 122.482 56.536 122.754 56.536C123.314 56.536 123.73 56.396 124.002 56.116C124.282 55.844 124.422 55.452 124.422 54.94V53.488H124.542C124.414 53.904 124.154 54.236 123.762 54.484C123.378 54.732 122.934 54.856 122.43 54.856C121.886 54.856 121.41 54.736 121.002 54.496C120.602 54.248 120.29 53.896 120.066 53.44C119.842 52.984 119.73 52.448 119.73 51.832C119.73 51.216 119.842 50.684 120.066 50.236C120.29 49.78 120.602 49.432 121.002 49.192C121.41 48.944 121.886 48.82 122.43 48.82C122.942 48.82 123.386 48.944 123.762 49.192C124.146 49.432 124.402 49.76 124.53 50.176L124.422 50.104L124.542 48.94H125.994C125.962 49.188 125.938 49.44 125.922 49.696C125.906 49.952 125.898 50.204 125.898 50.452V54.76C125.898 55.712 125.638 56.436 125.118 56.932C124.606 57.436 123.854 57.688 122.862 57.688ZM122.838 53.704C123.318 53.704 123.698 53.544 123.978 53.224C124.266 52.896 124.41 52.432 124.41 51.832C124.41 51.232 124.266 50.772 123.978 50.452C123.698 50.132 123.318 49.972 122.838 49.972C122.35 49.972 121.962 50.132 121.674 50.452C121.386 50.772 121.242 51.232 121.242 51.832C121.242 52.432 121.386 52.896 121.674 53.224C121.962 53.544 122.35 53.704 122.838 53.704ZM133.404 55.12C132.684 55.12 132.14 54.932 131.772 54.556C131.404 54.18 131.22 53.616 131.22 52.864V50.068H130.056V48.94H131.22V47.392L132.72 47.008V48.94H134.34V50.068H132.72V52.768C132.72 53.184 132.8 53.476 132.96 53.644C133.12 53.812 133.34 53.896 133.62 53.896C133.772 53.896 133.9 53.884 134.004 53.86C134.116 53.836 134.224 53.804 134.328 53.764V54.952C134.192 55.008 134.04 55.048 133.872 55.072C133.712 55.104 133.556 55.12 133.404 55.12ZM135.347 55V50.488C135.347 50.232 135.339 49.972 135.323 49.708C135.315 49.444 135.295 49.188 135.263 48.94H136.715L136.883 50.596H136.643C136.723 50.196 136.855 49.864 137.039 49.6C137.231 49.336 137.463 49.14 137.735 49.012C138.007 48.884 138.303 48.82 138.623 48.82C138.767 48.82 138.883 48.828 138.971 48.844C139.059 48.852 139.147 48.872 139.235 48.904L139.223 50.224C139.071 50.16 138.939 50.12 138.827 50.104C138.723 50.088 138.591 50.08 138.431 50.08C138.087 50.08 137.795 50.152 137.555 50.296C137.323 50.44 137.147 50.64 137.027 50.896C136.915 51.152 136.859 51.444 136.859 51.772V55H135.347ZM142.254 55.12C141.51 55.12 140.954 54.916 140.586 54.508C140.218 54.1 140.034 53.476 140.034 52.636V48.94H141.534V52.624C141.534 53.072 141.626 53.404 141.81 53.62C141.994 53.828 142.274 53.932 142.65 53.932C143.074 53.932 143.418 53.788 143.682 53.5C143.954 53.212 144.09 52.832 144.09 52.36V48.94H145.59V55H144.126V53.764H144.294C144.118 54.196 143.85 54.532 143.49 54.772C143.138 55.004 142.726 55.12 142.254 55.12ZM145.326 49.708L144.462 49.168V48.94C144.75 48.932 144.978 48.892 145.146 48.82C145.322 48.74 145.45 48.608 145.53 48.424C145.61 48.24 145.65 47.988 145.65 47.668V47.416H146.946V47.86C146.946 48.204 146.878 48.508 146.742 48.772C146.614 49.036 146.43 49.252 146.19 49.42C145.95 49.58 145.662 49.676 145.326 49.708ZM142.098 57.448V56.056H143.562V57.448H142.098ZM150.002 55.12C149.378 55.12 148.83 54.992 148.358 54.736C147.894 54.48 147.534 54.116 147.278 53.644C147.022 53.164 146.894 52.596 146.894 51.94C146.894 51.284 147.022 50.724 147.278 50.26C147.542 49.796 147.906 49.44 148.37 49.192C148.834 48.944 149.378 48.82 150.002 48.82C150.402 48.82 150.79 48.884 151.166 49.012C151.55 49.132 151.862 49.308 152.102 49.54L151.646 50.584C151.43 50.384 151.186 50.236 150.914 50.14C150.65 50.036 150.39 49.984 150.134 49.984C149.598 49.984 149.178 50.152 148.874 50.488C148.578 50.824 148.43 51.312 148.43 51.952C148.43 52.592 148.578 53.084 148.874 53.428C149.178 53.772 149.598 53.944 150.134 53.944C150.382 53.944 150.638 53.896 150.902 53.8C151.174 53.704 151.422 53.556 151.646 53.356L152.102 54.388C151.854 54.62 151.538 54.8 151.154 54.928C150.778 55.056 150.394 55.12 150.002 55.12ZM159.15 55.12C158.43 55.12 157.886 54.932 157.518 54.556C157.15 54.18 156.966 53.616 156.966 52.864V50.068H155.802V48.94H156.966V47.392L158.466 47.008V48.94H160.086V50.068H158.466V52.768C158.466 53.184 158.546 53.476 158.706 53.644C158.866 53.812 159.086 53.896 159.366 53.896C159.518 53.896 159.646 53.884 159.75 53.86C159.862 53.836 159.97 53.804 160.074 53.764V54.952C159.938 55.008 159.786 55.048 159.618 55.072C159.458 55.104 159.302 55.12 159.15 55.12ZM163.289 55.12C162.545 55.12 161.989 54.916 161.621 54.508C161.253 54.1 161.069 53.476 161.069 52.636V48.94H162.569V52.624C162.569 53.072 162.661 53.404 162.845 53.62C163.029 53.828 163.309 53.932 163.685 53.932C164.109 53.932 164.453 53.788 164.717 53.5C164.989 53.212 165.125 52.832 165.125 52.36V48.94H166.625V55H165.161V53.764H165.329C165.153 54.196 164.885 54.532 164.525 54.772C164.173 55.004 163.761 55.12 163.289 55.12ZM168.134 57.724L167.786 56.536C168.162 56.456 168.478 56.364 168.734 56.26C168.99 56.156 169.202 56.02 169.37 55.852C169.538 55.684 169.678 55.468 169.79 55.204L170.09 54.496L170.054 55.084L167.413 48.94H169.01L170.906 53.668H170.558L172.466 48.94H173.978L171.218 55.336C171.034 55.768 170.834 56.124 170.618 56.404C170.402 56.692 170.17 56.92 169.922 57.088C169.674 57.264 169.402 57.4 169.106 57.496C168.81 57.592 168.486 57.668 168.134 57.724ZM177.58 55.12C176.564 55.12 175.768 54.84 175.192 54.28C174.616 53.72 174.328 52.952 174.328 51.976C174.328 51.344 174.452 50.792 174.7 50.32C174.948 49.848 175.292 49.48 175.732 49.216C176.18 48.952 176.7 48.82 177.292 48.82C177.876 48.82 178.364 48.944 178.756 49.192C179.148 49.44 179.444 49.788 179.644 50.236C179.852 50.684 179.956 51.208 179.956 51.808V52.204H175.54V51.412H178.888L178.684 51.58C178.684 51.02 178.564 50.592 178.324 50.296C178.092 50 177.752 49.852 177.304 49.852C176.808 49.852 176.424 50.028 176.152 50.38C175.888 50.732 175.756 51.224 175.756 51.856V52.012C175.756 52.668 175.916 53.16 176.236 53.488C176.564 53.808 177.024 53.968 177.616 53.968C177.96 53.968 178.28 53.924 178.576 53.836C178.88 53.74 179.168 53.588 179.44 53.38L179.884 54.388C179.596 54.62 179.252 54.8 178.852 54.928C178.452 55.056 178.028 55.12 177.58 55.12ZM175.312 48.412L176.632 46.456H177.952L179.272 48.412H178.324L177.292 47.272L176.26 48.412H175.312ZM178.6 47.14L179.608 45.34H180.856L179.452 47.14H178.6ZM181.226 55V50.452C181.226 50.204 181.218 49.952 181.202 49.696C181.186 49.44 181.162 49.188 181.13 48.94H182.582L182.702 50.14H182.558C182.75 49.716 183.034 49.392 183.41 49.168C183.786 48.936 184.222 48.82 184.718 48.82C185.43 48.82 185.966 49.02 186.326 49.42C186.686 49.82 186.866 50.444 186.866 51.292V55H185.366V51.364C185.366 50.876 185.27 50.528 185.078 50.32C184.894 50.104 184.614 49.996 184.238 49.996C183.774 49.996 183.406 50.14 183.134 50.428C182.862 50.716 182.726 51.1 182.726 51.58V55H181.226Z" fill="black"/>
<defs>
<radialGradient id="paint0_radial_2_3418" cx="0" cy="0" r="1" gradientUnits="userSpaceOnUse" gradientTransform="translate(164.314 37.4077) scale(20.5011 2.08387)">
<stop stop-color="#666666"/>
<stop offset="0.1445" stop-color="#6B6B6B" stop-opacity="0.8555"/>
<stop offset="0.3088" stop-color="#787878" stop-opacity="0.6912"/>
<stop offset="0.4827" stop-color="#8F8F8F" stop-opacity="0.5173"/>
<stop offset="0.6634" stop-color="#AFAFAF" stop-opacity="0.3366"/>
<stop offset="0.8474" stop-color="#D8D8D8" stop-opacity="0.1526"/>
<stop offset="1" stop-color="white" stop-opacity="0"/>
</radialGradient>
<linearGradient id="paint1_linear_2_3418" x1="157.056" y1="21.4901" x2="179.028" y2="11.7916" gradientUnits="userSpaceOnUse">
<stop stop-color="#FF602F"/>
<stop offset="1" stop-color="#FEB23C"/>
</linearGradient>
<linearGradient id="paint2_linear_2_3418" x1="178.623" y1="10.8649" x2="187.629" y2="6.88999" gradientUnits="userSpaceOnUse">
<stop offset="0.5432" stop-color="#FF602F"/>
<stop offset="1" stop-color="#FEB23C"/>
</linearGradient>
</defs>
</svg>
