<svg width="16" height="16" viewBox="0 0 16 16" fill="none" xmlns="http://www.w3.org/2000/svg">
<path fill-rule="evenodd" clip-rule="evenodd" d="M5.93917 8.64642L3.69193 7.89734L3.69192 7.89734L3.69192 7.89734C1.33871 7.11293 0.162109 6.72073 0.162109 5.99997C0.162109 5.27921 1.33872 4.88701 3.69193 4.10261L12.2051 1.26488C13.8609 0.712955 14.6888 0.43699 15.1258 0.874006C15.5628 1.31102 15.2869 2.13892 14.7349 3.79471L11.8972 12.3079L11.8972 12.3079C11.1128 14.6611 10.7206 15.8377 9.99983 15.8377C9.27907 15.8377 8.88687 14.6611 8.10247 12.3079L7.35338 10.0606L11.7069 5.70708C12.0975 5.31656 12.0975 4.68339 11.7069 4.29287C11.3164 3.90234 10.6832 3.90234 10.2927 4.29287L5.93917 8.64642Z" fill="#333333"/>
</svg>
