<svg width="18" height="18" viewBox="0 0 18 18" fill="none" xmlns="http://www.w3.org/2000/svg">
<path d="M4.97608 0.114579C4.82069 -0.0355311 4.57303 -0.0312035 4.42292 0.124188C4.27651 0.275801 4.27651 0.516131 4.42292 0.667708L12.7523 8.99788L4.42215 17.3273C4.26676 17.4774 4.26247 17.725 4.41254 17.8804C4.56265 18.0358 4.81028 18.0401 4.9657 17.8901C4.96897 17.8869 4.97216 17.8837 4.97531 17.8804L13.5817 9.27408C13.7344 9.12133 13.7344 8.8737 13.5817 8.72091L4.97608 0.114579Z" fill="#F44336"/>
<path d="M4.69952 17.9959C4.48347 17.9963 4.30802 17.8214 4.30762 17.6053C4.30743 17.5012 4.3488 17.4012 4.42256 17.3277L12.7527 8.99827L4.42256 0.668909C4.26959 0.515938 4.26959 0.267943 4.42256 0.114972C4.57553 -0.0379985 4.82352 -0.0379985 4.97649 0.114972L13.5829 8.72134C13.7356 8.87409 13.7356 9.12172 13.5829 9.27451L4.97649 17.8808C4.90314 17.9544 4.80346 17.9959 4.69952 17.9959Z" fill="white"/>
</svg>
